Take home Exercise2 – ISSS626-GAA
…
saveRDS(wm_q_numbers_thai_yearly,"data/rds/wm_q_numbers_thai_yearly.rds")

wm_q_numbers_thai_yearly <- readRDS("data/rds/wm_q_numbers_thai_yearly.rds")

wm_q_numbers_thai_yearly

Simple feature collection with 80 features and 5 fields
Geometry type: GEOMETRY
Dimension:     XY
Bounding box:  xmin: 98.18107 ymin: 10.95469 xmax: 101.4546 ymax: 15.66074
Geodetic CRS:  WGS 84
# A tibble: 80 × 6
   nb         wt         ADM1_EN    year total_value                    geometry
 * <nb>       <list>     <chr>     <dbl>       <dbl>               <POLYGON [°]>
 1 <int [19]> <dbl [19]> Ang Thong  2019      796444 ((100.3329 14.79905, 100.3…
 2 <int [19]> <dbl [19]> Ang Thong  2020      369062 ((100.3329 14.79905, 100.3…
 3 <int [19]> <dbl [19]> Ang Thong  2021      253957 ((100.3329 14.79905, 100.3…
 4 <int [19]> <dbl [19]> Ang Thong  2022      670079 ((100.3329 14.79905, 100.3…
 5 <int [19]> <dbl [19]> Ang Thong  2023      161835 ((100.3329 14.79905, 100.3…
 6 <int [29]> <dbl [29]> Bangkok    2019    42073847 ((100.6128 13.9552, 100.61…
 7 <int [29]> <dbl [29]> Bangkok    2020    18795401 ((100.6128 13.9552, 100.61…
 8 <int [29]> <dbl [29]> Bangkok    2021    11946480 ((100.6128 13.9552, 100.61…
 9 <int [29]> <dbl [29]> Bangkok    2022    28793993 ((100.6128 13.9552, 100.61…
10 <int [29]> <dbl [29]> Bangkok    2023     5290145 ((100.6128 13.9552, 100.61…
# ℹ 70 more rows
…
saveRDS(wm_q_numbers_foreign_yearly,"data/rds/wm_q_numbers_foreign_yearly.rds")

wm_q_numbers_foreign_yearly <- readRDS("data/rds/wm_q_numbers_foreign_yearly.rds")

wm_q_numbers_foreign_yearly 

Simple feature collection with 80 features and 5 fields
Geometry type: GEOMETRY
Dimension:     XY
Bounding box:  xmin: 98.18107 ymin: 10.95469 xmax: 101.4546 ymax: 15.66074
Geodetic CRS:  WGS 84
# A tibble: 80 × 6
   nb         wt         ADM1_EN    year total_value                    geometry
 * <nb>       <list>     <chr>     <dbl>       <dbl>               <POLYGON [°]>
 1 <int [19]> <dbl [19]> Ang Thong  2019       32112 ((100.3329 14.79905, 100.3…
 2 <int [19]> <dbl [19]> Ang Thong  2020        8259 ((100.3329 14.79905, 100.3…
 3 <int [19]> <dbl [19]> Ang Thong  2021           0 ((100.3329 14.79905, 100.3…
 4 <int [19]> <dbl [19]> Ang Thong  2022         670 ((100.3329 14.79905, 100.3…
 5 <int [19]> <dbl [19]> Ang Thong  2023        1032 ((100.3329 14.79905, 100.3…
 6 <int [29]> <dbl [29]> Bangkok    2019    24892715 ((100.6128 13.9552, 100.61…
 7 <int [29]> <dbl [29]> Bangkok    2020     4822513 ((100.6128 13.9552, 100.61…
 8 <int [29]> <dbl [29]> Bangkok    2021      625362 ((100.6128 13.9552, 100.61…
 9 <int [29]> <dbl [29]> Bangkok    2022     9832457 ((100.6128 13.9552, 100.61…
10 <int [29]> <dbl [29]> Bangkok    2023     4279587 ((100.6128 13.9552, 100.61…
# ℹ 70 more rows
…
saveRDS(wm_q_numbers_local_monthly2019,"data/rds/wm_q_numbers_monthly2019.rds")

wm_q_numbers_local_monthly2019 <- readRDS("data/rds/wm_q_numbers_monthly2019.rds")

wm_q_numbers_local_monthly2019 

Simple feature collection with 192 features and 6 fields
Geometry type: GEOMETRY
Dimension:     XY
Bounding box:  xmin: 98.18107 ymin: 10.95469 xmax: 101.4546 ymax: 15.66074
Geodetic CRS:  WGS 84
# A tibble: 192 × 7
   nb         wt     ADM1_EN    year month total_value                  geometry
 * <nb>       <list> <chr>     <dbl> <dbl>       <dbl>             <POLYGON [°]>
 1 <int [47]> <dbl>  Ang Thong  2019     1       98816 ((100.3329 14.79905, 100…
 2 <int [47]> <dbl>  Ang Thong  2019     2       90029 ((100.3329 14.79905, 100…
 3 <int [47]> <dbl>  Ang Thong  2019     3       96733 ((100.3329 14.79905, 100…
 4 <int [47]> <dbl>  Ang Thong  2019     4       61929 ((100.3329 14.79905, 100…
 5 <int [47]> <dbl>  Ang Thong  2019     5       69159 ((100.3329 14.79905, 100…
 6 <int [47]> <dbl>  Ang Thong  2019     6       62095 ((100.3329 14.79905, 100…
 7 <int [47]> <dbl>  Ang Thong  2019     7       60045 ((100.3329 14.79905, 100…
 8 <int [47]> <dbl>  Ang Thong  2019     8       51666 ((100.3329 14.79905, 100…
 9 <int [47]> <dbl>  Ang Thong  2019     9       57042 ((100.3329 14.79905, 100…
10 <int [47]> <dbl>  Ang Thong  2019    10       53523 ((100.3329 14.79905, 100…
# ℹ 182 more rows
…
saveRDS(wm_q_numbers_foreign_monthly2019,"data/rds/wm_q_numbers_foreign_monthly2019.rds")

wm_q_numbers_foreign_monthly2019<-readRDS("data/rds/wm_q_numbers_foreign_monthly2019.rds")

wm_q_numbers_foreign_monthly2019

Simple feature collection with 192 features and 6 fields
Geometry type: GEOMETRY
Dimension:     XY
Bounding box:  xmin: 98.18107 ymin: 10.95469 xmax: 101.4546 ymax: 15.66074
Geodetic CRS:  WGS 84
# A tibble: 192 × 7
   nb         wt     ADM1_EN    year month total_value                  geometry
 * <nb>       <list> <chr>     <dbl> <dbl>       <dbl>             <POLYGON [°]>
 1 <int [47]> <dbl>  Ang Thong  2019     1        5281 ((100.3329 14.79905, 100…
 2 <int [47]> <dbl>  Ang Thong  2019     2        3915 ((100.3329 14.79905, 100…
 3 <int [47]> <dbl>  Ang Thong  2019     3        4690 ((100.3329 14.79905, 100…
 4 <int [47]> <dbl>  Ang Thong  2019     4         899 ((100.3329 14.79905, 100…
 5 <int [47]> <dbl>  Ang Thong  2019     5         764 ((100.3329 14.79905, 100…
 6 <int [47]> <dbl>  Ang Thong  2019     6        1022 ((100.3329 14.79905, 100…
 7 <int [47]> <dbl>  Ang Thong  2019     7        5989 ((100.3329 14.79905, 100…
 8 <int [47]> <dbl>  Ang Thong  2019     8        2938 ((100.3329 14.79905, 100…
 9 <int [47]> <dbl>  Ang Thong  2019     9        3390 ((100.3329 14.79905, 100…
10 <int [47]> <dbl>  Ang Thong  2019    10        1200 ((100.3329 14.79905, 100…
# ℹ 182 more rows
…
saveRDS(wm_q_ratio_tourist_stay_yearly,"data/rds/wm_q_ratio_tourist_stay_yearly.rds")

wm_q_ratio_tourist_stay_yearly<-readRDS("data/rds/wm_q_ratio_tourist_stay_yearly.rds")

wm_q_ratio_tourist_stay_yearly 

Simple feature collection with 80 features and 5 fields
Geometry type: GEOMETRY
Dimension:     XY
Bounding box:  xmin: 98.18107 ymin: 10.95469 xmax: 101.4546 ymax: 15.66074
Geodetic CRS:  WGS 84
# A tibble: 80 × 6
   nb         wt         ADM1_EN    year average_ratio                  geometry
 * <nb>       <list>     <chr>     <dbl>         <dbl>             <POLYGON [°]>
 1 <int [19]> <dbl [19]> Ang Thong  2019          64.0 ((100.3329 14.79905, 100…
 2 <int [19]> <dbl [19]> Ang Thong  2020          20.4 ((100.3329 14.79905, 100…
 3 <int [19]> <dbl [19]> Ang Thong  2021          11.8 ((100.3329 14.79905, 100…
 4 <int [19]> <dbl [19]> Ang Thong  2022          31.2 ((100.3329 14.79905, 100…
 5 <int [19]> <dbl [19]> Ang Thong  2023          46.6 ((100.3329 14.79905, 100…
 6 <int [29]> <dbl [29]> Bangkok    2019          82.2 ((100.6128 13.9552, 100.…
 7 <int [29]> <dbl [29]> Bangkok    2020          28.2 ((100.6128 13.9552, 100.…
 8 <int [29]> <dbl [29]> Bangkok    2021          13.0 ((100.6128 13.9552, 100.…
 9 <int [29]> <dbl [29]> Bangkok    2022          46.6 ((100.6128 13.9552, 100.…
10 <int [29]> <dbl [29]> Bangkok    2023          75.5 ((100.6128 13.9552, 100.…
# ℹ 70 more rows
…
lisa_numbers_foreign_yearly <- wm_q_numbers_foreign_yearly %>% 
  mutate(local_moran = local_moran(
    total_value, nb, wt, nsim = 99),
         .before = 1) %>%
  unnest(local_moran)

lisa_numbers_foreign_yearly

Simple feature collection with 80 features and 17 fields
Geometry type: GEOMETRY
Dimension:     XY
Bounding box:  xmin: 98.18107 ymin: 10.95469 xmax: 101.4546 ymax: 15.66074
Geodetic CRS:  WGS 84
# A tibble: 80 × 18
         ii       eii    var_ii   z_ii   p_ii p_ii_sim p_folded_sim skewness
      <dbl>     <dbl>     <dbl>  <dbl>  <dbl>    <dbl>        <dbl>    <dbl>
 1  0.0371  -0.00310  0.00237    0.825 0.409      0.42         0.21   -1.03 
 2  0.0383  -0.00207  0.00317    0.718 0.473      0.54         0.27   -1.68 
 3  0.0388  -0.00302  0.00236    0.860 0.390      0.52         0.26   -0.845
 4  0.0387   0.00901  0.00199    0.667 0.504      0.58         0.29   -1.81 
 5  0.0387  -0.00218  0.00305    0.741 0.459      0.5          0.25   -1.73 
 6  0.304   -0.746    0.455      1.56  0.119      0.16         0.08    0.860
 7  0.366    0.00216  0.0705     1.37  0.171      0.24         0.12    1.21 
 8 -0.00584  0.000774 0.0000110 -1.99  0.0466     0.14         0.07   -1.65 
 9  0.635   -0.181    0.229      1.70  0.0885     0.12         0.06    1.28 
10  0.325   -0.00717  0.0594     1.36  0.173      0.16         0.08    1.11 
# ℹ 70 more rows
# ℹ 10 more variables: kurtosis <dbl>, mean <fct>, median <fct>, pysal <fct>,
#   nb <nb>, wt <list>, ADM1_EN <chr>, year <dbl>, total_value <dbl>,
#   geometry <POLYGON [°]>
…
lisa_numbers_thai_monthly <- wm_q_numbers_local_monthly2019 %>% 
  mutate(local_moran = local_moran(
    total_value, nb, wt, nsim = 99),
         .before = 1) %>%
  unnest(local_moran)

lisa_numbers_thai_monthly

Simple feature collection with 192 features and 18 fields
Geometry type: GEOMETRY
Dimension:     XY
Bounding box:  xmin: 98.18107 ymin: 10.95469 xmax: 101.4546 ymax: 15.66074
Geodetic CRS:  WGS 84
# A tibble: 192 × 19
      ii       eii  var_ii  z_ii   p_ii p_ii_sim p_folded_sim skewness kurtosis
   <dbl>     <dbl>   <dbl> <dbl>  <dbl>    <dbl>        <dbl>    <dbl>    <dbl>
 1 0.171 -0.0213   0.00646  2.39 0.0168     0.02         0.01   -0.317   -0.185
 2 0.175  0.00809  0.00586  2.17 0.0297     0.02         0.01   -0.686    0.333
 3 0.172  0.000403 0.00450  2.56 0.0106     0.02         0.01   -0.335    0.313
 4 0.186 -0.00134  0.00549  2.53 0.0115     0.02         0.01   -0.506   -0.381
 5 0.183 -0.0109   0.00682  2.35 0.0189     0.02         0.01   -0.368   -0.104
 6 0.186 -0.0118   0.00703  2.36 0.0184     0.02         0.01   -0.208   -0.187
 7 0.187 -0.00314  0.00791  2.13 0.0328     0.02         0.01   -0.448   -0.104
 8 0.190  0.00561  0.00657  2.28 0.0229     0.02         0.01   -0.124   -0.836
 9 0.188 -0.0148   0.00762  2.32 0.0202     0.02         0.01   -0.470    0.179
10 0.189  0.00326  0.00787  2.10 0.0360     0.02         0.01   -0.658    0.655
# ℹ 182 more rows
# ℹ 10 more variables: mean <fct>, median <fct>, pysal <fct>, nb <nb>,
#   wt <list>, ADM1_EN <chr>, year <dbl>, month <dbl>, total_value <dbl>,
#   geometry <POLYGON [°]>
…
lisa_numbers_foreign_monthly <- wm_q_numbers_foreign_monthly2019 %>% 
  mutate(local_moran = local_moran(
    total_value, nb, wt, nsim = 99),
         .before = 1) %>%
  unnest(local_moran)

lisa_numbers_foreign_monthly

Simple feature collection with 192 features and 18 fields
Geometry type: GEOMETRY
Dimension:     XY
Bounding box:  xmin: 98.18107 ymin: 10.95469 xmax: 101.4546 ymax: 15.66074
Geodetic CRS:  WGS 84
# A tibble: 192 × 19
       ii       eii  var_ii  z_ii   p_ii p_ii_sim p_folded_sim skewness kurtosis
    <dbl>     <dbl>   <dbl> <dbl>  <dbl>    <dbl>        <dbl>    <dbl>    <dbl>
 1 0.0765 -0.00442  0.00256  1.60 0.110      0.06         0.03  -0.574   -0.0513
 2 0.0772 -0.00175  0.00192  1.80 0.0716     0.04         0.02  -0.519   -0.153 
 3 0.0768  0.000772 0.00208  1.67 0.0956     0.14         0.07  -0.279   -0.453 
 4 0.0786 -0.00372  0.00259  1.62 0.106      0.08         0.04  -0.475   -0.0874
 5 0.0786 -0.000677 0.00324  1.39 0.164      0.18         0.09  -0.490   -0.0297
 6 0.0785  0.00367  0.00197  1.68 0.0921     0.02         0.01  -0.821    0.605 
 7 0.0762  0.00222  0.00227  1.55 0.120      0.12         0.06  -0.333   -0.690 
 8 0.0776  0.000580 0.00196  1.74 0.0822     0.08         0.04  -0.288   -0.323 
 9 0.0774 -0.000973 0.00186  1.82 0.0689     0.1          0.05  -0.0473  -0.519 
10 0.0784  0.00859  0.00185  1.62 0.104      0.12         0.06  -0.558    0.337 
# ℹ 182 more rows
# ℹ 10 more variables: mean <fct>, median <fct>, pysal <fct>, nb <nb>,
#   wt <list>, ADM1_EN <chr>, year <dbl>, month <dbl>, total_value <dbl>,
#   geometry <POLYGON [°]>
…
